a1 <= 50 confidenta 1304
a2 <= 50 confidenta 1309
a3 <= 50 confidenta 1314
a4 <= 50 confidenta 1317
a5 <= 50 confidenta 1317
a6 <= 50 confidenta 1315
a7 <= 50 confidenta 1314
a8 <= 50 confidenta 1314
a9 <= 50 confidenta 1311
a10 <= 50 confidenta 1307
a11 <= 50 confidenta 1301
a12 <= 50 confidenta 1297
a13 <= 50 confidenta 1294
a14 <= 50 confidenta 1299
a15 <= 50 confidenta 1301
a16 <= 50 confidenta 1306
a17 <= 50 confidenta 1312
a18 <= 50 confidenta 1312
a19 <= 50 confidenta 1307
a20 <= 50 confidenta 1306
a21 <= 50 confidenta 1308
a22 <= 50 confidenta 1309
a23 <= 50 confidenta 1301
a24 <= 50 confidenta 1296
a25 <= 50 confidenta 1295
a26 <= 50 confidenta 1296
a27 <= 50 confidenta 1288
a28 <= 50 confidenta 1292
a29 <= 50 confidenta 1297
a30 <= 50 confidenta 1299
a31 <= 50 confidenta 1301
a32 <= 50 confidenta 1296
a33 <= 50 confidenta 1294
a34 <= 50 confidenta 1296
a35 <= 50 confidenta 1292
a36 <= 50 confidenta 1291
a37 <= 50 confidenta 1288
a38 <= 50 confidenta 1289
a39 <= 50 confidenta 1293
a40 <= 50 confidenta 1281
a41 <= 50 confidenta 1283
a42 <= 50 confidenta 1279
a43 <= 50 confidenta 1278
a44 <= 50 confidenta 1282
a45 <= 50 confidenta 1276
a46 <= 50 confidenta 1271
a47 <= 50 confidenta 1271
a48 <= 50 confidenta 1272
a49 <= 50 confidenta 1274
a50 <= 50 confidenta 1276
a51 <= 50 confidenta 1280
a52 <= 50 confidenta 1290
a53 <= 50 confidenta 1273
a54 <= 50 confidenta 1263
a55 <= 50 confidenta 1259
a63 <= 50 confidenta 1257
a64 <= 50 confidenta 1268
a65 <= 50 confidenta 1279
a66 <= 50 confidenta 1255
a77 <= 50 confidenta 1262
a78 <= 50 confidenta 1275
a84 >= 15 confidenta 1267
a85 >= 15 confidenta 1282
a86 >= 15 confidenta 1270
a91 <= 50 confidenta 1266
a96 >= 15 confidenta 1260
a97 >= 15 confidenta 1285
a98 >= 15 confidenta 1282
a99 >= 15 confidenta 1268
a104 <= 50 confidenta 1261
a117 <= 50 confidenta 1263
a129 <= 50 confidenta 1258
a130 <= 50 confidenta 1264
a141 <= 50 confidenta 1257
a142 <= 50 confidenta 1262
a143 <= 50 confidenta 1270
a144 <= 50 confidenta 1258
a145 <= 50 confidenta 1255
a146 <= 50 confidenta 1255
a153 <= 50 confidenta 1262
a154 <= 50 confidenta 1272
a155 <= 50 confidenta 1274
a156 <= 50 confidenta 1280
a157 <= 50 confidenta 1270
a158 <= 50 confidenta 1272
a159 <= 50 confidenta 1268
a160 <= 50 confidenta 1269
a161 <= 50 confidenta 1268
a162 <= 50 confidenta 1267
a163 <= 50 confidenta 1266
a164 <= 50 confidenta 1268
a165 <= 50 confidenta 1274
a166 <= 50 confidenta 1278
a167 <= 50 confidenta 1287
a168 <= 50 confidenta 1291
a169 <= 50 confidenta 1296
a1 <= 50 >= a2 confidenta 1299
a1 <= 50 >= a3 confidenta 1299
a1 <= 50 >= a4 confidenta 1300
a1 <= 50 >= a5 confidenta 1301
a1 <= 50 >= a6 confidenta 1298
a1 <= 50 >= a7 confidenta 1297
a1 <= 50 >= a8 confidenta 1297
a1 <= 50 >= a9 confidenta 1294
a1 <= 50 >= a10 confidenta 1290
a1 <= 50 >= a11 confidenta 1284
a1 <= 50 >= a12 confidenta 1280
a1 <= 50 >= a13 confidenta 1277
a1 <= 50 >= a14 confidenta 1292
a1 <= 50 >= a15 confidenta 1293
a1 <= 50 >= a16 confidenta 1294
a1 <= 50 >= a17 confidenta 1296
a1 <= 50 >= a18 confidenta 1295
a1 <= 50 >= a19 confidenta 1290
a1 <= 50 >= a20 confidenta 1289
a1 <= 50 >= a21 confidenta 1291
a1 <= 50 >= a22 confidenta 1292
a1 <= 50 >= a23 confidenta 1284
a1 <= 50 >= a24 confidenta 1279
a1 <= 50 >= a25 confidenta 1278
a1 <= 50 >= a26 confidenta 1279
a1 <= 50 >= a27 confidenta 1278
a1 <= 50 >= a28 confidenta 1280
a1 <= 50 >= a29 confidenta 1284
a1 <= 50 >= a30 confidenta 1283
a1 <= 50 >= a31 confidenta 1284
a1 <= 50 >= a32 confidenta 1279
a1 <= 50 >= a33 confidenta 1277
a1 <= 50 >= a34 confidenta 1279
a1 <= 50 >= a35 confidenta 1275
a1 <= 50 >= a36 confidenta 1274
a1 <= 50 >= a37 confidenta 1271
a1 <= 50 >= a38 confidenta 1272
a1 <= 50 >= a39 confidenta 1276
a1 <= 50 >= a40 confidenta 1265
a1 <= 50 >= a41 confidenta 1267
a1 <= 50 >= a42 confidenta 1264
a1 <= 50 >= a43 confidenta 1263
a1 <= 50 >= a44 confidenta 1266
a1 <= 50 >= a45 confidenta 1259
a1 <= 50 >= a48 confidenta 1255
a1 <= 50 >= a49 confidenta 1257
a1 <= 50 >= a50 confidenta 1259
a1 <= 50 >= a51 confidenta 1263
a1 <= 50 >= a52 confidenta 1273
a1 <= 50 >= a53 confidenta 1256
a1 <= 50 >= a65 confidenta 1262
a1 <= 50 >= a78 confidenta 1258
a1 <= 50 >= a154 confidenta 1258
a1 <= 50 >= a155 confidenta 1259
a1 <= 50 >= a156 confidenta 1264
a1 <= 50 >= a158 confidenta 1255
a1 <= 50 >= a164 confidenta 1255
a1 <= 50 >= a165 confidenta 1262
a1 <= 50 >= a166 confidenta 1266
a1 <= 50 >= a167 confidenta 1273
a1 <= 50 >= a168 confidenta 1276
a1 <= 50 >= a169 confidenta 1281
a2 <= 50 >= a3 confidenta 1305
a2 <= 50 >= a4 confidenta 1305
a2 <= 50 >= a5 confidenta 1305
a2 <= 50 >= a6 confidenta 1304
a2 <= 50 >= a7 confidenta 1302
a2 <= 50 >= a8 confidenta 1302
a2 <= 50 >= a9 confidenta 1299
a2 <= 50 >= a10 confidenta 1295
a2 <= 50 >= a11 confidenta 1289
a2 <= 50 >= a12 confidenta 1285
a2 <= 50 >= a13 confidenta 1282
a2 <= 50 >= a14 confidenta 1295
a2 <= 50 >= a15 confidenta 1297
a2 <= 50 >= a16 confidenta 1300
a2 <= 50 >= a17 confidenta 1301
a2 <= 50 >= a18 confidenta 1301
a2 <= 50 >= a19 confidenta 1295
a2 <= 50 >= a20 confidenta 1294
a2 <= 50 >= a21 confidenta 1296
a2 <= 50 >= a22 confidenta 1297
a2 <= 50 >= a23 confidenta 1289
a2 <= 50 >= a24 confidenta 1284
a2 <= 50 >= a25 confidenta 1283
a2 <= 50 >= a26 confidenta 1284
a2 <= 50 >= a27 confidenta 1281
a2 <= 50 >= a28 confidenta 1286
a2 <= 50 >= a29 confidenta 1287
a2 <= 50 >= a30 confidenta 1289
a2 <= 50 >= a31 confidenta 1289
a2 <= 50 >= a32 confidenta 1284
a2 <= 50 >= a33 confidenta 1282
a2 <= 50 >= a34 confidenta 1284
a2 <= 50 >= a35 confidenta 1280
a2 <= 50 >= a36 confidenta 1279
a2 <= 50 >= a37 confidenta 1276
a2 <= 50 >= a38 confidenta 1277
a2 <= 50 >= a39 confidenta 1281
a2 <= 50 >= a40 confidenta 1272
a2 <= 50 >= a41 confidenta 1271
a2 <= 50 >= a42 confidenta 1268
a2 <= 50 >= a43 confidenta 1267
a2 <= 50 >= a44 confidenta 1271
a2 <= 50 >= a45 confidenta 1265
a2 <= 50 >= a46 confidenta 1259
a2 <= 50 >= a47 confidenta 1259
a2 <= 50 >= a48 confidenta 1260
a2 <= 50 >= a49 confidenta 1262
a2 <= 50 >= a50 confidenta 1264
a2 <= 50 >= a51 confidenta 1268
a2 <= 50 >= a52 confidenta 1278
a2 <= 50 >= a53 confidenta 1261
a2 <= 50 >= a64 confidenta 1256
a2 <= 50 >= a65 confidenta 1267
a2 <= 50 >= a78 confidenta 1263
a2 <= 50 >= a143 confidenta 1259
a2 <= 50 >= a154 confidenta 1262
a2 <= 50 >= a155 confidenta 1263
a2 <= 50 >= a156 confidenta 1269
a2 <= 50 >= a157 confidenta 1258
a2 <= 50 >= a158 confidenta 1260
a2 <= 50 >= a159 confidenta 1256
a2 <= 50 >= a160 confidenta 1257
a2 <= 50 >= a161 confidenta 1256
a2 <= 50 >= a162 confidenta 1255
a2 <= 50 >= a164 confidenta 1258
a2 <= 50 >= a165 confidenta 1265
a2 <= 50 >= a166 confidenta 1269
a2 <= 50 >= a167 confidenta 1277
a2 <= 50 >= a168 confidenta 1280
a2 <= 50 >= a169 confidenta 1285
a3 <= 50 >= a4 confidenta 1311
a3 <= 50 >= a5 confidenta 1310
a3 <= 50 >= a6 confidenta 1308
a3 <= 50 >= a7 confidenta 1308
a3 <= 50 >= a8 confidenta 1307
a3 <= 50 >= a9 confidenta 1304
a3 <= 50 >= a10 confidenta 1300
a3 <= 50 >= a11 confidenta 1294
a3 <= 50 >= a12 confidenta 1290
a3 <= 50 >= a13 confidenta 1287
a3 <= 50 >= a14 confidenta 1294
a3 <= 50 >= a15 confidenta 1299
a3 <= 50 >= a16 confidenta 1303
a3 <= 50 >= a17 confidenta 1306
a3 <= 50 >= a18 confidenta 1305
a3 <= 50 >= a19 confidenta 1301
a3 <= 50 >= a20 confidenta 1299
a3 <= 50 >= a21 confidenta 1301
a3 <= 50 >= a22 confidenta 1302
a3 <= 50 >= a23 confidenta 1294
a3 <= 50 >= a24 confidenta 1289
a3 <= 50 >= a25 confidenta 1288
a3 <= 50 >= a26 confidenta 1289
a3 <= 50 >= a27 confidenta 1282
a3 <= 50 >= a28 confidenta 1288
a3 <= 50 >= a29 confidenta 1292
a3 <= 50 >= a30 confidenta 1292
a3 <= 50 >= a31 confidenta 1294
a3 <= 50 >= a32 confidenta 1289
a3 <= 50 >= a33 confidenta 1287
a3 <= 50 >= a34 confidenta 1289
a3 <= 50 >= a35 confidenta 1285
a3 <= 50 >= a36 confidenta 1284
a3 <= 50 >= a37 confidenta 1281
a3 <= 50 >= a38 confidenta 1282
a3 <= 50 >= a39 confidenta 1286
a3 <= 50 >= a40 confidenta 1276
a3 <= 50 >= a41 confidenta 1277
a3 <= 50 >= a42 confidenta 1272
a3 <= 50 >= a43 confidenta 1271
a3 <= 50 >= a44 confidenta 1275
a3 <= 50 >= a45 confidenta 1269
a3 <= 50 >= a46 confidenta 1264
a3 <= 50 >= a47 confidenta 1264
a3 <= 50 >= a48 confidenta 1265
a3 <= 50 >= a49 confidenta 1267
a3 <= 50 >= a50 confidenta 1269
a3 <= 50 >= a51 confidenta 1273
a3 <= 50 >= a52 confidenta 1283
a3 <= 50 >= a53 confidenta 1266
a3 <= 50 >= a54 confidenta 1256
a3 <= 50 >= a64 confidenta 1261
a3 <= 50 >= a65 confidenta 1272
a3 <= 50 >= a77 confidenta 1255
a3 <= 50 >= a78 confidenta 1268
a3 <= 50 >= a91 confidenta 1259
a3 <= 50 >= a117 confidenta 1256
a3 <= 50 >= a130 confidenta 1257
a3 <= 50 >= a142 confidenta 1256
a3 <= 50 >= a143 confidenta 1264
a3 <= 50 >= a153 confidenta 1256
a3 <= 50 >= a154 confidenta 1266
a3 <= 50 >= a155 confidenta 1267
a3 <= 50 >= a156 confidenta 1273
a3 <= 50 >= a157 confidenta 1263
a3 <= 50 >= a158 confidenta 1265
a3 <= 50 >= a159 confidenta 1261
a3 <= 50 >= a160 confidenta 1262
a3 <= 50 >= a161 confidenta 1261
a3 <= 50 >= a162 confidenta 1260
a3 <= 50 >= a163 confidenta 1259
a3 <= 50 >= a164 confidenta 1261
a3 <= 50 >= a165 confidenta 1268
a3 <= 50 >= a166 confidenta 1272
a3 <= 50 >= a167 confidenta 1280
a3 <= 50 >= a168 confidenta 1284
a3 <= 50 >= a169 confidenta 1289
a4 <= 50 >= a5 confidenta 1313
a4 <= 50 >= a6 confidenta 1311
a4 <= 50 >= a7 confidenta 1310
a4 <= 50 >= a8 confidenta 1311
a4 <= 50 >= a9 confidenta 1307
a4 <= 50 >= a10 confidenta 1303
a4 <= 50 >= a11 confidenta 1297
a4 <= 50 >= a12 confidenta 1293
a4 <= 50 >= a13 confidenta 1290
a4 <= 50 >= a14 confidenta 1296
a4 <= 50 >= a15 confidenta 1298
a4 <= 50 >= a16 confidenta 1304
a4 <= 50 >= a17 confidenta 1309
a4 <= 50 >= a18 confidenta 1309
a4 <= 50 >= a19 confidenta 1303
a4 <= 50 >= a20 confidenta 1303
a4 <= 50 >= a21 confidenta 1304
a4 <= 50 >= a22 confidenta 1305
a4 <= 50 >= a23 confidenta 1297
a4 <= 50 >= a24 confidenta 1292
a4 <= 50 >= a25 confidenta 1291
a4 <= 50 >= a26 confidenta 1292
a4 <= 50 >= a27 confidenta 1284
a4 <= 50 >= a28 confidenta 1288
a4 <= 50 >= a29 confidenta 1295
a4 <= 50 >= a30 confidenta 1297
a4 <= 50 >= a31 confidenta 1297
a4 <= 50 >= a32 confidenta 1292
a4 <= 50 >= a33 confidenta 1290
a4 <= 50 >= a34 confidenta 1292
a4 <= 50 >= a35 confidenta 1288
a4 <= 50 >= a36 confidenta 1287
a4 <= 50 >= a37 confidenta 1284
a4 <= 50 >= a38 confidenta 1285
a4 <= 50 >= a39 confidenta 1289
a4 <= 50 >= a40 confidenta 1277
a4 <= 50 >= a41 confidenta 1280
a4 <= 50 >= a42 confidenta 1276
a4 <= 50 >= a43 confidenta 1274
a4 <= 50 >= a44 confidenta 1278
a4 <= 50 >= a45 confidenta 1272
a4 <= 50 >= a46 confidenta 1267
a4 <= 50 >= a47 confidenta 1267
a4 <= 50 >= a48 confidenta 1268
a4 <= 50 >= a49 confidenta 1270
a4 <= 50 >= a50 confidenta 1272
a4 <= 50 >= a51 confidenta 1276
a4 <= 50 >= a52 confidenta 1286
a4 <= 50 >= a53 confidenta 1269
a4 <= 50 >= a54 confidenta 1259
a4 <= 50 >= a55 confidenta 1255
a4 <= 50 >= a64 confidenta 1264
a4 <= 50 >= a65 confidenta 1275
a4 <= 50 >= a77 confidenta 1258
a4 <= 50 >= a78 confidenta 1271
a4 <= 50 >= a91 confidenta 1262
a4 <= 50 >= a104 confidenta 1257
a4 <= 50 >= a117 confidenta 1259
a4 <= 50 >= a130 confidenta 1260
a4 <= 50 >= a142 confidenta 1258
a4 <= 50 >= a143 confidenta 1266
a4 <= 50 >= a153 confidenta 1258
a4 <= 50 >= a154 confidenta 1268
a4 <= 50 >= a155 confidenta 1270
a4 <= 50 >= a156 confidenta 1276
a4 <= 50 >= a157 confidenta 1266
a4 <= 50 >= a158 confidenta 1268
a4 <= 50 >= a159 confidenta 1264
a4 <= 50 >= a160 confidenta 1265
a4 <= 50 >= a161 confidenta 1264
a4 <= 50 >= a162 confidenta 1263
a4 <= 50 >= a163 confidenta 1262
a4 <= 50 >= a164 confidenta 1264
a4 <= 50 >= a165 confidenta 1270
a4 <= 50 >= a166 confidenta 1274
a4 <= 50 >= a167 confidenta 1283
a4 <= 50 >= a168 confidenta 1287
a4 <= 50 >= a169 confidenta 1292
a5 <= 50 >= a6 confidenta 1312
a5 <= 50 >= a7 confidenta 1310
a5 <= 50 >= a8 confidenta 1310
a5 <= 50 >= a9 confidenta 1308
a5 <= 50 >= a10 confidenta 1303
a5 <= 50 >= a11 confidenta 1297
a5 <= 50 >= a12 confidenta 1293
a5 <= 50 >= a13 confidenta 1290
a5 <= 50 >= a14 confidenta 1296
a5 <= 50 >= a15 confidenta 1298
a5 <= 50 >= a16 confidenta 1302
a5 <= 50 >= a17 confidenta 1310
a5 <= 50 >= a18 confidenta 1310
a5 <= 50 >= a19 confidenta 1304
a5 <= 50 >= a20 confidenta 1302
a5 <= 50 >= a21 confidenta 1305
a5 <= 50 >= a22 confidenta 1305
a5 <= 50 >= a23 confidenta 1297
a5 <= 50 >= a24 confidenta 1292
a5 <= 50 >= a25 confidenta 1291
a5 <= 50 >= a26 confidenta 1292
a5 <= 50 >= a27 confidenta 1285
a5 <= 50 >= a28 confidenta 1288
a5 <= 50 >= a29 confidenta 1293
a5 <= 50 >= a30 confidenta 1297
a5 <= 50 >= a31 confidenta 1299
a5 <= 50 >= a32 confidenta 1292
a5 <= 50 >= a33 confidenta 1290
a5 <= 50 >= a34 confidenta 1292
a5 <= 50 >= a35 confidenta 1288
a5 <= 50 >= a36 confidenta 1287
a5 <= 50 >= a37 confidenta 1284
a5 <= 50 >= a38 confidenta 1285
a5 <= 50 >= a39 confidenta 1289
a5 <= 50 >= a40 confidenta 1277
a5 <= 50 >= a41 confidenta 1279
a5 <= 50 >= a42 confidenta 1276
a5 <= 50 >= a43 confidenta 1275
a5 <= 50 >= a44 confidenta 1278
a5 <= 50 >= a45 confidenta 1272
a5 <= 50 >= a46 confidenta 1267
a5 <= 50 >= a47 confidenta 1267
a5 <= 50 >= a48 confidenta 1268
a5 <= 50 >= a49 confidenta 1270
a5 <= 50 >= a50 confidenta 1272
a5 <= 50 >= a51 confidenta 1276
a5 <= 50 >= a52 confidenta 1286
a5 <= 50 >= a53 confidenta 1269
a5 <= 50 >= a54 confidenta 1259
a5 <= 50 >= a55 confidenta 1255
a5 <= 50 >= a64 confidenta 1264
a5 <= 50 >= a65 confidenta 1275
a5 <= 50 >= a77 confidenta 1258
a5 <= 50 >= a78 confidenta 1271
a5 <= 50 >= a91 confidenta 1262
a5 <= 50 >= a104 confidenta 1257
a5 <= 50 >= a117 confidenta 1259
a5 <= 50 >= a130 confidenta 1260
a5 <= 50 >= a142 confidenta 1258
a5 <= 50 >= a143 confidenta 1266
a5 <= 50 >= a153 confidenta 1258
a5 <= 50 >= a154 confidenta 1268
a5 <= 50 >= a155 confidenta 1270
a5 <= 50 >= a156 confidenta 1276
a5 <= 50 >= a157 confidenta 1266
a5 <= 50 >= a158 confidenta 1268
a5 <= 50 >= a159 confidenta 1264
a5 <= 50 >= a160 confidenta 1265
a5 <= 50 >= a161 confidenta 1264
a5 <= 50 >= a162 confidenta 1263
a5 <= 50 >= a163 confidenta 1262
a5 <= 50 >= a164 confidenta 1264
a5 <= 50 >= a165 confidenta 1270
a5 <= 50 >= a166 confidenta 1274
a5 <= 50 >= a167 confidenta 1283
a5 <= 50 >= a168 confidenta 1287
a5 <= 50 >= a169 confidenta 1292
a6 <= 50 >= a7 confidenta 1309
a6 <= 50 >= a8 confidenta 1308
a6 <= 50 >= a9 confidenta 1305
a6 <= 50 >= a10 confidenta 1302
a6 <= 50 >= a11 confidenta 1295
a6 <= 50 >= a12 confidenta 1291
a6 <= 50 >= a13 confidenta 1288
a6 <= 50 >= a14 confidenta 1293
a6 <= 50 >= a15 confidenta 1296
a6 <= 50 >= a16 confidenta 1301
a6 <= 50 >= a17 confidenta 1307
a6 <= 50 >= a18 confidenta 1308
a6 <= 50 >= a19 confidenta 1303
a6 <= 50 >= a20 confidenta 1303
a6 <= 50 >= a21 confidenta 1303
a6 <= 50 >= a22 confidenta 1305
a6 <= 50 >= a23 confidenta 1296
a6 <= 50 >= a24 confidenta 1291
a6 <= 50 >= a25 confidenta 1289
a6 <= 50 >= a26 confidenta 1290
a6 <= 50 >= a27 confidenta 1283
a6 <= 50 >= a28 confidenta 1287
a6 <= 50 >= a29 confidenta 1291
a6 <= 50 >= a30 confidenta 1293
a6 <= 50 >= a31 confidenta 1297
a6 <= 50 >= a32 confidenta 1294
a6 <= 50 >= a33 confidenta 1290
a6 <= 50 >= a34 confidenta 1292
a6 <= 50 >= a35 confidenta 1287
a6 <= 50 >= a36 confidenta 1285
a6 <= 50 >= a37 confidenta 1282
a6 <= 50 >= a38 confidenta 1283
a6 <= 50 >= a39 confidenta 1287
a6 <= 50 >= a40 confidenta 1275
a6 <= 50 >= a41 confidenta 1277
a6 <= 50 >= a42 confidenta 1273
a6 <= 50 >= a43 confidenta 1273
a6 <= 50 >= a44 confidenta 1277
a6 <= 50 >= a45 confidenta 1270
a6 <= 50 >= a46 confidenta 1267
a6 <= 50 >= a47 confidenta 1267
a6 <= 50 >= a48 confidenta 1266
a6 <= 50 >= a49 confidenta 1268
a6 <= 50 >= a50 confidenta 1270
a6 <= 50 >= a51 confidenta 1274
a6 <= 50 >= a52 confidenta 1284
a6 <= 50 >= a53 confidenta 1267
a6 <= 50 >= a54 confidenta 1257
a6 <= 50 >= a64 confidenta 1262
a6 <= 50 >= a65 confidenta 1273
a6 <= 50 >= a77 confidenta 1256
a6 <= 50 >= a78 confidenta 1269
a6 <= 50 >= a91 confidenta 1260
a6 <= 50 >= a104 confidenta 1255
a6 <= 50 >= a117 confidenta 1257
a6 <= 50 >= a130 confidenta 1258
a6 <= 50 >= a142 confidenta 1256
a6 <= 50 >= a143 confidenta 1264
a6 <= 50 >= a153 confidenta 1256
a6 <= 50 >= a154 confidenta 1266
a6 <= 50 >= a155 confidenta 1268
a6 <= 50 >= a156 confidenta 1274
a6 <= 50 >= a157 confidenta 1264
a6 <= 50 >= a158 confidenta 1266
a6 <= 50 >= a159 confidenta 1262
a6 <= 50 >= a160 confidenta 1263
a6 <= 50 >= a161 confidenta 1262
a6 <= 50 >= a162 confidenta 1261
a6 <= 50 >= a163 confidenta 1260
a6 <= 50 >= a164 confidenta 1262
a6 <= 50 >= a165 confidenta 1268
a6 <= 50 >= a166 confidenta 1272
a6 <= 50 >= a167 confidenta 1281
a6 <= 50 >= a168 confidenta 1285
a6 <= 50 >= a169 confidenta 1290
a7 <= 50 >= a8 confidenta 1309
a7 <= 50 >= a9 confidenta 1304
a7 <= 50 >= a10 confidenta 1300
a7 <= 50 >= a11 confidenta 1295
a7 <= 50 >= a12 confidenta 1290
a7 <= 50 >= a13 confidenta 1287
a7 <= 50 >= a14 confidenta 1292
a7 <= 50 >= a15 confidenta 1294
a7 <= 50 >= a16 confidenta 1300
a7 <= 50 >= a17 confidenta 1306
a7 <= 50 >= a18 confidenta 1305
a7 <= 50 >= a19 confidenta 1302
a7 <= 50 >= a20 confidenta 1303
a7 <= 50 >= a21 confidenta 1305
a7 <= 50 >= a22 confidenta 1304
a7 <= 50 >= a23 confidenta 1297
a7 <= 50 >= a24 confidenta 1291
a7 <= 50 >= a25 confidenta 1289
a7 <= 50 >= a26 confidenta 1289
a7 <= 50 >= a27 confidenta 1281
a7 <= 50 >= a28 confidenta 1286
a7 <= 50 >= a29 confidenta 1291
a7 <= 50 >= a30 confidenta 1292
a7 <= 50 >= a31 confidenta 1294
a7 <= 50 >= a32 confidenta 1292
a7 <= 50 >= a33 confidenta 1292
a7 <= 50 >= a34 confidenta 1292
a7 <= 50 >= a35 confidenta 1288
a7 <= 50 >= a36 confidenta 1285
a7 <= 50 >= a37 confidenta 1281
a7 <= 50 >= a38 confidenta 1282
a7 <= 50 >= a39 confidenta 1286
a7 <= 50 >= a40 confidenta 1274
a7 <= 50 >= a41 confidenta 1276
a7 <= 50 >= a42 confidenta 1272
a7 <= 50 >= a43 confidenta 1271
a7 <= 50 >= a44 confidenta 1276
a7 <= 50 >= a45 confidenta 1270
a7 <= 50 >= a46 confidenta 1265
a7 <= 50 >= a47 confidenta 1267
a7 <= 50 >= a48 confidenta 1267
a7 <= 50 >= a49 confidenta 1267
a7 <= 50 >= a50 confidenta 1269
a7 <= 50 >= a51 confidenta 1273
a7 <= 50 >= a52 confidenta 1283
a7 <= 50 >= a53 confidenta 1266
a7 <= 50 >= a54 confidenta 1256
a7 <= 50 >= a64 confidenta 1261
a7 <= 50 >= a65 confidenta 1272
a7 <= 50 >= a77 confidenta 1255
a7 <= 50 >= a78 confidenta 1268
a7 <= 50 >= a91 confidenta 1259
a7 <= 50 >= a117 confidenta 1256
a7 <= 50 >= a130 confidenta 1257
a7 <= 50 >= a142 confidenta 1255
a7 <= 50 >= a143 confidenta 1263
a7 <= 50 >= a153 confidenta 1255
a7 <= 50 >= a154 confidenta 1265
a7 <= 50 >= a155 confidenta 1267
a7 <= 50 >= a156 confidenta 1273
a7 <= 50 >= a157 confidenta 1263
a7 <= 50 >= a158 confidenta 1265
a7 <= 50 >= a159 confidenta 1261
a7 <= 50 >= a160 confidenta 1262
a7 <= 50 >= a161 confidenta 1261
a7 <= 50 >= a162 confidenta 1260
a7 <= 50 >= a163 confidenta 1259
a7 <= 50 >= a164 confidenta 1261
a7 <= 50 >= a165 confidenta 1267
a7 <= 50 >= a166 confidenta 1271
a7 <= 50 >= a167 confidenta 1280
a7 <= 50 >= a168 confidenta 1284
a7 <= 50 >= a169 confidenta 1289
a8 <= 50 >= a9 confidenta 1306
a8 <= 50 >= a10 confidenta 1300
a8 <= 50 >= a11 confidenta 1294
a8 <= 50 >= a12 confidenta 1291
a8 <= 50 >= a13 confidenta 1287
a8 <= 50 >= a14 confidenta 1292
a8 <= 50 >= a15 confidenta 1294
a8 <= 50 >= a16 confidenta 1299
a8 <= 50 >= a17 confidenta 1306
a8 <= 50 >= a18 confidenta 1306
a8 <= 50 >= a19 confidenta 1301
a8 <= 50 >= a20 confidenta 1302
a8 <= 50 >= a21 confidenta 1304
a8 <= 50 >= a22 confidenta 1304
a8 <= 50 >= a23 confidenta 1295
a8 <= 50 >= a24 confidenta 1291
a8 <= 50 >= a25 confidenta 1289
a8 <= 50 >= a26 confidenta 1289
a8 <= 50 >= a27 confidenta 1281
a8 <= 50 >= a28 confidenta 1285
a8 <= 50 >= a29 confidenta 1291
a8 <= 50 >= a30 confidenta 1293
a8 <= 50 >= a31 confidenta 1294
a8 <= 50 >= a32 confidenta 1289
a8 <= 50 >= a33 confidenta 1290
a8 <= 50 >= a34 confidenta 1292
a8 <= 50 >= a35 confidenta 1286
a8 <= 50 >= a36 confidenta 1285
a8 <= 50 >= a37 confidenta 1281
a8 <= 50 >= a38 confidenta 1282
a8 <= 50 >= a39 confidenta 1286
a8 <= 50 >= a40 confidenta 1274
a8 <= 50 >= a41 confidenta 1276
a8 <= 50 >= a42 confidenta 1272
a8 <= 50 >= a43 confidenta 1271
a8 <= 50 >= a44 confidenta 1275
a8 <= 50 >= a45 confidenta 1270
a8 <= 50 >= a46 confidenta 1265
a8 <= 50 >= a47 confidenta 1265
a8 <= 50 >= a48 confidenta 1266
a8 <= 50 >= a49 confidenta 1267
a8 <= 50 >= a50 confidenta 1269
a8 <= 50 >= a51 confidenta 1273
a8 <= 50 >= a52 confidenta 1283
a8 <= 50 >= a53 confidenta 1266
a8 <= 50 >= a54 confidenta 1256
a8 <= 50 >= a64 confidenta 1261
a8 <= 50 >= a65 confidenta 1272
a8 <= 50 >= a77 confidenta 1255
a8 <= 50 >= a78 confidenta 1268
a8 <= 50 >= a91 confidenta 1259
a8 <= 50 >= a117 confidenta 1256
a8 <= 50 >= a130 confidenta 1257
a8 <= 50 >= a142 confidenta 1255
a8 <= 50 >= a143 confidenta 1263
a8 <= 50 >= a153 confidenta 1255
a8 <= 50 >= a154 confidenta 1265
a8 <= 50 >= a155 confidenta 1267
a8 <= 50 >= a156 confidenta 1273
a8 <= 50 >= a157 confidenta 1263
a8 <= 50 >= a158 confidenta 1265
a8 <= 50 >= a159 confidenta 1261
a8 <= 50 >= a160 confidenta 1262
a8 <= 50 >= a161 confidenta 1261
a8 <= 50 >= a162 confidenta 1260
a8 <= 50 >= a163 confidenta 1259
a8 <= 50 >= a164 confidenta 1261
a8 <= 50 >= a165 confidenta 1267
a8 <= 50 >= a166 confidenta 1271
a8 <= 50 >= a167 confidenta 1280
a8 <= 50 >= a168 confidenta 1284
a8 <= 50 >= a169 confidenta 1289
a9 <= 50 >= a10 confidenta 1301
a9 <= 50 >= a11 confidenta 1293
a9 <= 50 >= a12 confidenta 1288
a9 <= 50 >= a13 confidenta 1286
a9 <= 50 >= a14 confidenta 1289
a9 <= 50 >= a15 confidenta 1291
a9 <= 50 >= a16 confidenta 1296
a9 <= 50 >= a17 confidenta 1302
a9 <= 50 >= a18 confidenta 1303
a9 <= 50 >= a19 confidenta 1298
a9 <= 50 >= a20 confidenta 1297
a9 <= 50 >= a21 confidenta 1301
a9 <= 50 >= a22 confidenta 1302
a9 <= 50 >= a23 confidenta 1295
a9 <= 50 >= a24 confidenta 1287
a9 <= 50 >= a25 confidenta 1287
a9 <= 50 >= a26 confidenta 1287
a9 <= 50 >= a27 confidenta 1278
a9 <= 50 >= a28 confidenta 1282
a9 <= 50 >= a29 confidenta 1287
a9 <= 50 >= a30 confidenta 1290
a9 <= 50 >= a31 confidenta 1292
a9 <= 50 >= a32 confidenta 1286
a9 <= 50 >= a33 confidenta 1284
a9 <= 50 >= a34 confidenta 1288
a9 <= 50 >= a35 confidenta 1285
a9 <= 50 >= a36 confidenta 1283
a9 <= 50 >= a37 confidenta 1280
a9 <= 50 >= a38 confidenta 1280
a9 <= 50 >= a39 confidenta 1283
a9 <= 50 >= a40 confidenta 1271
a9 <= 50 >= a41 confidenta 1273
a9 <= 50 >= a42 confidenta 1269
a9 <= 50 >= a43 confidenta 1268
a9 <= 50 >= a44 confidenta 1272
a9 <= 50 >= a45 confidenta 1266
a9 <= 50 >= a46 confidenta 1262
a9 <= 50 >= a47 confidenta 1262
a9 <= 50 >= a48 confidenta 1262
a9 <= 50 >= a49 confidenta 1265
a9 <= 50 >= a50 confidenta 1268
a9 <= 50 >= a51 confidenta 1270
a9 <= 50 >= a52 confidenta 1280
a9 <= 50 >= a53 confidenta 1263
a9 <= 50 >= a64 confidenta 1258
a9 <= 50 >= a65 confidenta 1269
a9 <= 50 >= a78 confidenta 1265
a9 <= 50 >= a91 confidenta 1256
a9 <= 50 >= a143 confidenta 1260
a9 <= 50 >= a154 confidenta 1262
a9 <= 50 >= a155 confidenta 1264
a9 <= 50 >= a156 confidenta 1270
a9 <= 50 >= a157 confidenta 1260
a9 <= 50 >= a158 confidenta 1262
a9 <= 50 >= a159 confidenta 1259
a9 <= 50 >= a160 confidenta 1259
a9 <= 50 >= a161 confidenta 1258
a9 <= 50 >= a162 confidenta 1257
a9 <= 50 >= a163 confidenta 1256
a9 <= 50 >= a164 confidenta 1258
a9 <= 50 >= a165 confidenta 1264
a9 <= 50 >= a166 confidenta 1268
a9 <= 50 >= a167 confidenta 1277
a9 <= 50 >= a168 confidenta 1281
a9 <= 50 >= a169 confidenta 1286
a10 <= 50 >= a11 confidenta 1294
a10 <= 50 >= a12 confidenta 1287
a10 <= 50 >= a13 confidenta 1282
a10 <= 50 >= a14 confidenta 1285
a10 <= 50 >= a15 confidenta 1287
a10 <= 50 >= a16 confidenta 1292
a10 <= 50 >= a17 confidenta 1298
a10 <= 50 >= a18 confidenta 1298
a10 <= 50 >= a19 confidenta 1294
a10 <= 50 >= a20 confidenta 1293
a10 <= 50 >= a21 confidenta 1295
a10 <= 50 >= a22 confidenta 1299
a10 <= 50 >= a23 confidenta 1294
a10 <= 50 >= a24 confidenta 1289
a10 <= 50 >= a25 confidenta 1283
a10 <= 50 >= a26 confidenta 1284
a10 <= 50 >= a27 confidenta 1274
a10 <= 50 >= a28 confidenta 1278
a10 <= 50 >= a29 confidenta 1283
a10 <= 50 >= a30 confidenta 1285
a10 <= 50 >= a31 confidenta 1288
a10 <= 50 >= a32 confidenta 1283
a10 <= 50 >= a33 confidenta 1280
a10 <= 50 >= a34 confidenta 1282
a10 <= 50 >= a35 confidenta 1280
a10 <= 50 >= a36 confidenta 1282
a10 <= 50 >= a37 confidenta 1277
a10 <= 50 >= a38 confidenta 1277
a10 <= 50 >= a39 confidenta 1279
a10 <= 50 >= a40 confidenta 1267
a10 <= 50 >= a41 confidenta 1269
a10 <= 50 >= a42 confidenta 1265
a10 <= 50 >= a43 confidenta 1264
a10 <= 50 >= a44 confidenta 1268
a10 <= 50 >= a45 confidenta 1262
a10 <= 50 >= a46 confidenta 1257
a10 <= 50 >= a47 confidenta 1258
a10 <= 50 >= a48 confidenta 1259
a10 <= 50 >= a49 confidenta 1260
a10 <= 50 >= a50 confidenta 1264
a10 <= 50 >= a51 confidenta 1267
a10 <= 50 >= a52 confidenta 1276
a10 <= 50 >= a53 confidenta 1259
a10 <= 50 >= a65 confidenta 1265
a10 <= 50 >= a78 confidenta 1261
a10 <= 50 >= a143 confidenta 1256
a10 <= 50 >= a154 confidenta 1258
a10 <= 50 >= a155 confidenta 1260
a10 <= 50 >= a156 confidenta 1266
a10 <= 50 >= a157 confidenta 1256
a10 <= 50 >= a158 confidenta 1258
a10 <= 50 >= a159 confidenta 1255
a10 <= 50 >= a160 confidenta 1255
a10 <= 50 >= a165 confidenta 1260
a10 <= 50 >= a166 confidenta 1264
a10 <= 50 >= a167 confidenta 1273
a10 <= 50 >= a168 confidenta 1277
a10 <= 50 >= a169 confidenta 1282
a11 <= 50 >= a12 confidenta 1288
a11 <= 50 >= a13 confidenta 1280
a11 <= 50 >= a14 confidenta 1279
a11 <= 50 >= a15 confidenta 1281
a11 <= 50 >= a16 confidenta 1286
a11 <= 50 >= a17 confidenta 1292
a11 <= 50 >= a18 confidenta 1292
a11 <= 50 >= a19 confidenta 1288
a11 <= 50 >= a20 confidenta 1287
a11 <= 50 >= a21 confidenta 1289
a11 <= 50 >= a22 confidenta 1290
a11 <= 50 >= a23 confidenta 1287
a11 <= 50 >= a24 confidenta 1286
a11 <= 50 >= a25 confidenta 1285
a11 <= 50 >= a26 confidenta 1279
a11 <= 50 >= a27 confidenta 1268
a11 <= 50 >= a28 confidenta 1272
a11 <= 50 >= a29 confidenta 1277
a11 <= 50 >= a30 confidenta 1279
a11 <= 50 >= a31 confidenta 1281
a11 <= 50 >= a32 confidenta 1279
a11 <= 50 >= a33 confidenta 1276
a11 <= 50 >= a34 confidenta 1276
a11 <= 50 >= a35 confidenta 1272
a11 <= 50 >= a36 confidenta 1273
a11 <= 50 >= a37 confidenta 1273
a11 <= 50 >= a38 confidenta 1273
a11 <= 50 >= a39 confidenta 1275
a11 <= 50 >= a40 confidenta 1261
a11 <= 50 >= a41 confidenta 1263
a11 <= 50 >= a42 confidenta 1259
a11 <= 50 >= a43 confidenta 1258
a11 <= 50 >= a44 confidenta 1262
a11 <= 50 >= a45 confidenta 1258
a11 <= 50 >= a50 confidenta 1257
a11 <= 50 >= a51 confidenta 1261
a11 <= 50 >= a52 confidenta 1272
a11 <= 50 >= a65 confidenta 1259
a11 <= 50 >= a78 confidenta 1255
a11 <= 50 >= a156 confidenta 1260
a11 <= 50 >= a166 confidenta 1258
a11 <= 50 >= a167 confidenta 1267
a11 <= 50 >= a168 confidenta 1271
a11 <= 50 >= a169 confidenta 1276
a12 <= 50 >= a13 confidenta 1283
a12 <= 50 >= a14 confidenta 1275
a12 <= 50 >= a15 confidenta 1277
a12 <= 50 >= a16 confidenta 1282
a12 <= 50 >= a17 confidenta 1288
a12 <= 50 >= a18 confidenta 1288
a12 <= 50 >= a19 confidenta 1284
a12 <= 50 >= a20 confidenta 1283
a12 <= 50 >= a21 confidenta 1285
a12 <= 50 >= a22 confidenta 1286
a12 <= 50 >= a23 confidenta 1280
a12 <= 50 >= a24 confidenta 1280
a12 <= 50 >= a25 confidenta 1282
a12 <= 50 >= a26 confidenta 1282
a12 <= 50 >= a27 confidenta 1264
a12 <= 50 >= a28 confidenta 1268
a12 <= 50 >= a29 confidenta 1273
a12 <= 50 >= a30 confidenta 1275
a12 <= 50 >= a31 confidenta 1277
a12 <= 50 >= a32 confidenta 1273
a12 <= 50 >= a33 confidenta 1274
a12 <= 50 >= a34 confidenta 1274
a12 <= 50 >= a35 confidenta 1268
a12 <= 50 >= a36 confidenta 1268
a12 <= 50 >= a37 confidenta 1267
a12 <= 50 >= a38 confidenta 1270
a12 <= 50 >= a39 confidenta 1272
a12 <= 50 >= a40 confidenta 1257
a12 <= 50 >= a41 confidenta 1259
a12 <= 50 >= a42 confidenta 1255
a12 <= 50 >= a44 confidenta 1258
a12 <= 50 >= a51 confidenta 1256
a12 <= 50 >= a52 confidenta 1267
a12 <= 50 >= a65 confidenta 1255
a12 <= 50 >= a156 confidenta 1256
a12 <= 50 >= a167 confidenta 1263
a12 <= 50 >= a168 confidenta 1267
a12 <= 50 >= a169 confidenta 1272
a13 <= 50 >= a14 confidenta 1272
a13 <= 50 >= a15 confidenta 1274
a13 <= 50 >= a16 confidenta 1279
a13 <= 50 >= a17 confidenta 1285
a13 <= 50 >= a18 confidenta 1285
a13 <= 50 >= a19 confidenta 1280
a13 <= 50 >= a20 confidenta 1280
a13 <= 50 >= a21 confidenta 1282
a13 <= 50 >= a22 confidenta 1283
a13 <= 50 >= a23 confidenta 1278
a13 <= 50 >= a24 confidenta 1274
a13 <= 50 >= a25 confidenta 1280
a13 <= 50 >= a26 confidenta 1282
a13 <= 50 >= a27 confidenta 1261
a13 <= 50 >= a28 confidenta 1265
a13 <= 50 >= a29 confidenta 1270
a13 <= 50 >= a30 confidenta 1272
a13 <= 50 >= a31 confidenta 1274
a13 <= 50 >= a32 confidenta 1269
a13 <= 50 >= a33 confidenta 1268
a13 <= 50 >= a34 confidenta 1273
a13 <= 50 >= a35 confidenta 1267
a13 <= 50 >= a36 confidenta 1265
a13 <= 50 >= a37 confidenta 1264
a13 <= 50 >= a38 confidenta 1268
a13 <= 50 >= a39 confidenta 1273
a13 <= 50 >= a41 confidenta 1256
a13 <= 50 >= a44 confidenta 1255
a13 <= 50 >= a51 confidenta 1255
a13 <= 50 >= a52 confidenta 1265
a13 <= 50 >= a167 confidenta 1260
a13 <= 50 >= a168 confidenta 1264
a13 <= 50 >= a169 confidenta 1269
a14 <= 50 >= a15 confidenta 1291
a14 <= 50 >= a16 confidenta 1289
a14 <= 50 >= a17 confidenta 1291
a14 <= 50 >= a18 confidenta 1291
a14 <= 50 >= a19 confidenta 1285
a14 <= 50 >= a20 confidenta 1284
a14 <= 50 >= a21 confidenta 1286
a14 <= 50 >= a22 confidenta 1287
a14 <= 50 >= a23 confidenta 1279
a14 <= 50 >= a24 confidenta 1274
a14 <= 50 >= a25 confidenta 1273
a14 <= 50 >= a26 confidenta 1274
a14 <= 50 >= a27 confidenta 1279
a14 <= 50 >= a28 confidenta 1282
a14 <= 50 >= a29 confidenta 1281
a14 <= 50 >= a30 confidenta 1280
a14 <= 50 >= a31 confidenta 1279
a14 <= 50 >= a32 confidenta 1274
a14 <= 50 >= a33 confidenta 1272
a14 <= 50 >= a34 confidenta 1274
a14 <= 50 >= a35 confidenta 1270
a14 <= 50 >= a36 confidenta 1269
a14 <= 50 >= a37 confidenta 1266
a14 <= 50 >= a38 confidenta 1267
a14 <= 50 >= a39 confidenta 1271
a14 <= 50 >= a40 confidenta 1267
a14 <= 50 >= a41 confidenta 1265
a14 <= 50 >= a42 confidenta 1263
a14 <= 50 >= a43 confidenta 1260
a14 <= 50 >= a44 confidenta 1262
a14 <= 50 >= a45 confidenta 1255
a14 <= 50 >= a51 confidenta 1258
a14 <= 50 >= a52 confidenta 1268
a14 <= 50 >= a65 confidenta 1257
a14 <= 50 >= a156 confidenta 1259
a14 <= 50 >= a165 confidenta 1260
a14 <= 50 >= a166 confidenta 1262
a14 <= 50 >= a167 confidenta 1269
a14 <= 50 >= a168 confidenta 1272
a14 <= 50 >= a169 confidenta 1276
a15 <= 50 >= a16 confidenta 1295
a15 <= 50 >= a17 confidenta 1293
a15 <= 50 >= a18 confidenta 1292
a15 <= 50 >= a19 confidenta 1288
a15 <= 50 >= a20 confidenta 1286
a15 <= 50 >= a21 confidenta 1288
a15 <= 50 >= a22 confidenta 1289
a15 <= 50 >= a23 confidenta 1281
a15 <= 50 >= a24 confidenta 1276
a15 <= 50 >= a25 confidenta 1275
a15 <= 50 >= a26 confidenta 1276
a15 <= 50 >= a27 confidenta 1280
a15 <= 50 >= a28 confidenta 1284
a15 <= 50 >= a29 confidenta 1285
a15 <= 50 >= a30 confidenta 1283
a15 <= 50 >= a31 confidenta 1282
a15 <= 50 >= a32 confidenta 1276
a15 <= 50 >= a33 confidenta 1274
a15 <= 50 >= a34 confidenta 1276
a15 <= 50 >= a35 confidenta 1272
a15 <= 50 >= a36 confidenta 1271
a15 <= 50 >= a37 confidenta 1268
a15 <= 50 >= a38 confidenta 1269
a15 <= 50 >= a39 confidenta 1273
a15 <= 50 >= a40 confidenta 1268
a15 <= 50 >= a41 confidenta 1269
a15 <= 50 >= a42 confidenta 1264
a15 <= 50 >= a43 confidenta 1264
a15 <= 50 >= a44 confidenta 1265
a15 <= 50 >= a45 confidenta 1257
a15 <= 50 >= a50 confidenta 1256
a15 <= 50 >= a51 confidenta 1260
a15 <= 50 >= a52 confidenta 1270
a15 <= 50 >= a53 confidenta 1255
a15 <= 50 >= a65 confidenta 1259
a15 <= 50 >= a78 confidenta 1255
a15 <= 50 >= a154 confidenta 1255
a15 <= 50 >= a155 confidenta 1256
a15 <= 50 >= a156 confidenta 1261
a15 <= 50 >= a165 confidenta 1260
a15 <= 50 >= a166 confidenta 1265
a15 <= 50 >= a167 confidenta 1271
a15 <= 50 >= a168 confidenta 1273
a15 <= 50 >= a169 confidenta 1278
a16 <= 50 >= a17 confidenta 1299
a16 <= 50 >= a18 confidenta 1298
a16 <= 50 >= a19 confidenta 1293
a16 <= 50 >= a20 confidenta 1292
a16 <= 50 >= a21 confidenta 1293
a16 <= 50 >= a22 confidenta 1294
a16 <= 50 >= a23 confidenta 1286
a16 <= 50 >= a24 confidenta 1281
a16 <= 50 >= a25 confidenta 1280
a16 <= 50 >= a26 confidenta 1281
a16 <= 50 >= a27 confidenta 1280
a16 <= 50 >= a28 confidenta 1287
a16 <= 50 >= a29 confidenta 1290
a16 <= 50 >= a30 confidenta 1290
a16 <= 50 >= a31 confidenta 1288
a16 <= 50 >= a32 confidenta 1283
a16 <= 50 >= a33 confidenta 1279
a16 <= 50 >= a34 confidenta 1281
a16 <= 50 >= a35 confidenta 1277
a16 <= 50 >= a36 confidenta 1276
a16 <= 50 >= a37 confidenta 1273
a16 <= 50 >= a38 confidenta 1274
a16 <= 50 >= a39 confidenta 1278
a16 <= 50 >= a40 confidenta 1270
a16 <= 50 >= a41 confidenta 1272
a16 <= 50 >= a42 confidenta 1270
a16 <= 50 >= a43 confidenta 1267
a16 <= 50 >= a44 confidenta 1271
a16 <= 50 >= a45 confidenta 1263
a16 <= 50 >= a46 confidenta 1257
a16 <= 50 >= a47 confidenta 1256
a16 <= 50 >= a48 confidenta 1257
a16 <= 50 >= a49 confidenta 1259
a16 <= 50 >= a50 confidenta 1261
a16 <= 50 >= a51 confidenta 1265
a16 <= 50 >= a52 confidenta 1275
a16 <= 50 >= a53 confidenta 1260
a16 <= 50 >= a65 confidenta 1264
a16 <= 50 >= a78 confidenta 1260
a16 <= 50 >= a143 confidenta 1256
a16 <= 50 >= a154 confidenta 1259
a16 <= 50 >= a155 confidenta 1260
a16 <= 50 >= a156 confidenta 1266
a16 <= 50 >= a157 confidenta 1255
a16 <= 50 >= a158 confidenta 1257
a16 <= 50 >= a165 confidenta 1261
a16 <= 50 >= a166 confidenta 1267
a16 <= 50 >= a167 confidenta 1275
a16 <= 50 >= a168 confidenta 1277
a16 <= 50 >= a169 confidenta 1282
a17 <= 50 >= a18 confidenta 1305
a17 <= 50 >= a19 confidenta 1299
a17 <= 50 >= a20 confidenta 1298
a17 <= 50 >= a21 confidenta 1300
a17 <= 50 >= a22 confidenta 1300
a17 <= 50 >= a23 confidenta 1292
a17 <= 50 >= a24 confidenta 1287
a17 <= 50 >= a25 confidenta 1286
a17 <= 50 >= a26 confidenta 1287
a17 <= 50 >= a27 confidenta 1282
a17 <= 50 >= a28 confidenta 1286
a17 <= 50 >= a29 confidenta 1293
a17 <= 50 >= a30 confidenta 1295
a17 <= 50 >= a31 confidenta 1295
a17 <= 50 >= a32 confidenta 1289
a17 <= 50 >= a33 confidenta 1287
a17 <= 50 >= a34 confidenta 1287
a17 <= 50 >= a35 confidenta 1283
a17 <= 50 >= a36 confidenta 1282
a17 <= 50 >= a37 confidenta 1279
a17 <= 50 >= a38 confidenta 1280
a17 <= 50 >= a39 confidenta 1284
a17 <= 50 >= a40 confidenta 1274
a17 <= 50 >= a41 confidenta 1275
a17 <= 50 >= a42 confidenta 1273
a17 <= 50 >= a43 confidenta 1273
a17 <= 50 >= a44 confidenta 1275
a17 <= 50 >= a45 confidenta 1269
a17 <= 50 >= a46 confidenta 1263
a17 <= 50 >= a47 confidenta 1263
a17 <= 50 >= a48 confidenta 1263
a17 <= 50 >= a49 confidenta 1265
a17 <= 50 >= a50 confidenta 1267
a17 <= 50 >= a51 confidenta 1271
a17 <= 50 >= a52 confidenta 1281
a17 <= 50 >= a53 confidenta 1265
a17 <= 50 >= a54 confidenta 1256
a17 <= 50 >= a64 confidenta 1259
a17 <= 50 >= a65 confidenta 1270
a17 <= 50 >= a78 confidenta 1266
a17 <= 50 >= a91 confidenta 1257
a17 <= 50 >= a130 confidenta 1255
a17 <= 50 >= a143 confidenta 1261
a17 <= 50 >= a154 confidenta 1263
a17 <= 50 >= a155 confidenta 1265
a17 <= 50 >= a156 confidenta 1271
a17 <= 50 >= a157 confidenta 1261
a17 <= 50 >= a158 confidenta 1263
a17 <= 50 >= a159 confidenta 1259
a17 <= 50 >= a160 confidenta 1260
a17 <= 50 >= a161 confidenta 1259
a17 <= 50 >= a162 confidenta 1258
a17 <= 50 >= a163 confidenta 1257
a17 <= 50 >= a164 confidenta 1259
a17 <= 50 >= a165 confidenta 1265
a17 <= 50 >= a166 confidenta 1269
a17 <= 50 >= a167 confidenta 1278
a17 <= 50 >= a168 confidenta 1282
a17 <= 50 >= a169 confidenta 1287
a18 <= 50 >= a19 confidenta 1302
a18 <= 50 >= a20 confidenta 1297
a18 <= 50 >= a21 confidenta 1299
a18 <= 50 >= a22 confidenta 1301
a18 <= 50 >= a23 confidenta 1292
a18 <= 50 >= a24 confidenta 1287
a18 <= 50 >= a25 confidenta 1286
a18 <= 50 >= a26 confidenta 1287
a18 <= 50 >= a27 confidenta 1280
a18 <= 50 >= a28 confidenta 1285
a18 <= 50 >= a29 confidenta 1290
a18 <= 50 >= a30 confidenta 1295
a18 <= 50 >= a31 confidenta 1296
a18 <= 50 >= a32 confidenta 1291
a18 <= 50 >= a33 confidenta 1287
a18 <= 50 >= a34 confidenta 1289
a18 <= 50 >= a35 confidenta 1284
a18 <= 50 >= a36 confidenta 1283
a18 <= 50 >= a37 confidenta 1279
a18 <= 50 >= a38 confidenta 1280
a18 <= 50 >= a39 confidenta 1284
a18 <= 50 >= a40 confidenta 1273
a18 <= 50 >= a41 confidenta 1274
a18 <= 50 >= a42 confidenta 1271
a18 <= 50 >= a43 confidenta 1272
a18 <= 50 >= a44 confidenta 1277
a18 <= 50 >= a45 confidenta 1270
a18 <= 50 >= a46 confidenta 1264
a18 <= 50 >= a47 confidenta 1263
a18 <= 50 >= a48 confidenta 1263
a18 <= 50 >= a49 confidenta 1265
a18 <= 50 >= a50 confidenta 1267
a18 <= 50 >= a51 confidenta 1271
a18 <= 50 >= a52 confidenta 1281
a18 <= 50 >= a53 confidenta 1264
a18 <= 50 >= a54 confidenta 1255
a18 <= 50 >= a64 confidenta 1259
a18 <= 50 >= a65 confidenta 1270
a18 <= 50 >= a78 confidenta 1266
a18 <= 50 >= a91 confidenta 1257
a18 <= 50 >= a130 confidenta 1255
a18 <= 50 >= a143 confidenta 1261
a18 <= 50 >= a154 confidenta 1263
a18 <= 50 >= a155 confidenta 1265
a18 <= 50 >= a156 confidenta 1271
a18 <= 50 >= a157 confidenta 1261
a18 <= 50 >= a158 confidenta 1263
a18 <= 50 >= a159 confidenta 1259
a18 <= 50 >= a160 confidenta 1260
a18 <= 50 >= a161 confidenta 1259
a18 <= 50 >= a162 confidenta 1258
a18 <= 50 >= a163 confidenta 1257
a18 <= 50 >= a164 confidenta 1259
a18 <= 50 >= a165 confidenta 1265
a18 <= 50 >= a166 confidenta 1269
a18 <= 50 >= a167 confidenta 1278
a18 <= 50 >= a168 confidenta 1282
a18 <= 50 >= a169 confidenta 1287
a19 <= 50 >= a20 confidenta 1298
a19 <= 50 >= a21 confidenta 1294
a19 <= 50 >= a22 confidenta 1295
a19 <= 50 >= a23 confidenta 1288
a19 <= 50 >= a24 confidenta 1282
a19 <= 50 >= a25 confidenta 1281
a19 <= 50 >= a26 confidenta 1282
a19 <= 50 >= a27 confidenta 1274
a19 <= 50 >= a28 confidenta 1280
a19 <= 50 >= a29 confidenta 1286
a19 <= 50 >= a30 confidenta 1289
a19 <= 50 >= a31 confidenta 1294
a19 <= 50 >= a32 confidenta 1291
a19 <= 50 >= a33 confidenta 1288
a19 <= 50 >= a34 confidenta 1286
a19 <= 50 >= a35 confidenta 1281
a19 <= 50 >= a36 confidenta 1279
a19 <= 50 >= a37 confidenta 1275
a19 <= 50 >= a38 confidenta 1275
a19 <= 50 >= a39 confidenta 1279
a19 <= 50 >= a40 confidenta 1268
a19 <= 50 >= a41 confidenta 1270
a19 <= 50 >= a42 confidenta 1266
a19 <= 50 >= a43 confidenta 1266
a19 <= 50 >= a44 confidenta 1273
a19 <= 50 >= a45 confidenta 1270
a19 <= 50 >= a46 confidenta 1264
a19 <= 50 >= a47 confidenta 1262
a19 <= 50 >= a48 confidenta 1259
a19 <= 50 >= a49 confidenta 1260
a19 <= 50 >= a50 confidenta 1262
a19 <= 50 >= a51 confidenta 1266
a19 <= 50 >= a52 confidenta 1276
a19 <= 50 >= a53 confidenta 1259
a19 <= 50 >= a65 confidenta 1265
a19 <= 50 >= a78 confidenta 1261
a19 <= 50 >= a143 confidenta 1256
a19 <= 50 >= a154 confidenta 1258
a19 <= 50 >= a155 confidenta 1260
a19 <= 50 >= a156 confidenta 1266
a19 <= 50 >= a157 confidenta 1256
a19 <= 50 >= a158 confidenta 1258
a19 <= 50 >= a160 confidenta 1255
a19 <= 50 >= a165 confidenta 1260
a19 <= 50 >= a166 confidenta 1264
a19 <= 50 >= a167 confidenta 1273
a19 <= 50 >= a168 confidenta 1277
a19 <= 50 >= a169 confidenta 1282
a20 <= 50 >= a21 confidenta 1298
a20 <= 50 >= a22 confidenta 1295
a20 <= 50 >= a23 confidenta 1287
a20 <= 50 >= a24 confidenta 1283
a20 <= 50 >= a25 confidenta 1280
a20 <= 50 >= a26 confidenta 1281
a20 <= 50 >= a27 confidenta 1273
a20 <= 50 >= a28 confidenta 1277
a20 <= 50 >= a29 confidenta 1284
a20 <= 50 >= a30 confidenta 1286
a20 <= 50 >= a31 confidenta 1289
a20 <= 50 >= a32 confidenta 1288
a20 <= 50 >= a33 confidenta 1288
a20 <= 50 >= a34 confidenta 1289
a20 <= 50 >= a35 confidenta 1281
a20 <= 50 >= a36 confidenta 1279
a20 <= 50 >= a37 confidenta 1275
a20 <= 50 >= a38 confidenta 1275
a20 <= 50 >= a39 confidenta 1278
a20 <= 50 >= a40 confidenta 1266
a20 <= 50 >= a41 confidenta 1269
a20 <= 50 >= a42 confidenta 1265
a20 <= 50 >= a43 confidenta 1264
a20 <= 50 >= a44 confidenta 1268
a20 <= 50 >= a45 confidenta 1265
a20 <= 50 >= a46 confidenta 1265
a20 <= 50 >= a47 confidenta 1263
a20 <= 50 >= a48 confidenta 1261
a20 <= 50 >= a49 confidenta 1260
a20 <= 50 >= a50 confidenta 1261
a20 <= 50 >= a51 confidenta 1265
a20 <= 50 >= a52 confidenta 1275
a20 <= 50 >= a53 confidenta 1258
a20 <= 50 >= a65 confidenta 1264
a20 <= 50 >= a78 confidenta 1260
a20 <= 50 >= a143 confidenta 1255
a20 <= 50 >= a154 confidenta 1257
a20 <= 50 >= a155 confidenta 1259
a20 <= 50 >= a156 confidenta 1265
a20 <= 50 >= a157 confidenta 1255
a20 <= 50 >= a158 confidenta 1257
a20 <= 50 >= a165 confidenta 1259
a20 <= 50 >= a166 confidenta 1263
a20 <= 50 >= a167 confidenta 1272
a20 <= 50 >= a168 confidenta 1276
a20 <= 50 >= a169 confidenta 1281
a21 <= 50 >= a22 confidenta 1300
a21 <= 50 >= a23 confidenta 1290
a21 <= 50 >= a24 confidenta 1285
a21 <= 50 >= a25 confidenta 1284
a21 <= 50 >= a26 confidenta 1283
a21 <= 50 >= a27 confidenta 1275
a21 <= 50 >= a28 confidenta 1279
a21 <= 50 >= a29 confidenta 1284
a21 <= 50 >= a30 confidenta 1287
a21 <= 50 >= a31 confidenta 1289
a21 <= 50 >= a32 confidenta 1285
a21 <= 50 >= a33 confidenta 1288
a21 <= 50 >= a34 confidenta 1291
a21 <= 50 >= a35 confidenta 1286
a21 <= 50 >= a36 confidenta 1280
a21 <= 50 >= a37 confidenta 1277
a21 <= 50 >= a38 confidenta 1277
a21 <= 50 >= a39 confidenta 1280
a21 <= 50 >= a40 confidenta 1268
a21 <= 50 >= a41 confidenta 1270
a21 <= 50 >= a42 confidenta 1267
a21 <= 50 >= a43 confidenta 1266
a21 <= 50 >= a44 confidenta 1269
a21 <= 50 >= a45 confidenta 1263
a21 <= 50 >= a46 confidenta 1262
a21 <= 50 >= a47 confidenta 1266
a21 <= 50 >= a48 confidenta 1263
a21 <= 50 >= a49 confidenta 1263
a21 <= 50 >= a50 confidenta 1263
a21 <= 50 >= a51 confidenta 1267
a21 <= 50 >= a52 confidenta 1277
a21 <= 50 >= a53 confidenta 1260
a21 <= 50 >= a64 confidenta 1255
a21 <= 50 >= a65 confidenta 1266
a21 <= 50 >= a78 confidenta 1262
a21 <= 50 >= a143 confidenta 1257
a21 <= 50 >= a154 confidenta 1259
a21 <= 50 >= a155 confidenta 1261
a21 <= 50 >= a156 confidenta 1267
a21 <= 50 >= a157 confidenta 1257
a21 <= 50 >= a158 confidenta 1259
a21 <= 50 >= a159 confidenta 1255
a21 <= 50 >= a160 confidenta 1256
a21 <= 50 >= a161 confidenta 1255
a21 <= 50 >= a164 confidenta 1255
a21 <= 50 >= a165 confidenta 1261
a21 <= 50 >= a166 confidenta 1265
a21 <= 50 >= a167 confidenta 1274
a21 <= 50 >= a168 confidenta 1278
a21 <= 50 >= a169 confidenta 1283
a22 <= 50 >= a23 confidenta 1295
a22 <= 50 >= a24 confidenta 1287
a22 <= 50 >= a25 confidenta 1284
a22 <= 50 >= a26 confidenta 1285
a22 <= 50 >= a27 confidenta 1276
a22 <= 50 >= a28 confidenta 1280
a22 <= 50 >= a29 confidenta 1285
a22 <= 50 >= a30 confidenta 1287
a22 <= 50 >= a31 confidenta 1290
a22 <= 50 >= a32 confidenta 1286
a22 <= 50 >= a33 confidenta 1285
a22 <= 50 >= a34 confidenta 1289
a22 <= 50 >= a35 confidenta 1287
a22 <= 50 >= a36 confidenta 1285
a22 <= 50 >= a37 confidenta 1277
a22 <= 50 >= a38 confidenta 1277
a22 <= 50 >= a39 confidenta 1281
a22 <= 50 >= a40 confidenta 1269
a22 <= 50 >= a41 confidenta 1271
a22 <= 50 >= a42 confidenta 1267
a22 <= 50 >= a43 confidenta 1267
a22 <= 50 >= a44 confidenta 1271
a22 <= 50 >= a45 confidenta 1264
a22 <= 50 >= a46 confidenta 1260
a22 <= 50 >= a47 confidenta 1262
a22 <= 50 >= a48 confidenta 1264
a22 <= 50 >= a49 confidenta 1264
a22 <= 50 >= a50 confidenta 1266
a22 <= 50 >= a51 confidenta 1268
a22 <= 50 >= a52 confidenta 1278
a22 <= 50 >= a53 confidenta 1261
a22 <= 50 >= a64 confidenta 1256
a22 <= 50 >= a65 confidenta 1267
a22 <= 50 >= a78 confidenta 1263
a22 <= 50 >= a143 confidenta 1258
a22 <= 50 >= a154 confidenta 1260
a22 <= 50 >= a155 confidenta 1262
a22 <= 50 >= a156 confidenta 1268
a22 <= 50 >= a157 confidenta 1258
a22 <= 50 >= a158 confidenta 1260
a22 <= 50 >= a159 confidenta 1256
a22 <= 50 >= a160 confidenta 1257
a22 <= 50 >= a161 confidenta 1256
a22 <= 50 >= a162 confidenta 1255
a22 <= 50 >= a164 confidenta 1256
a22 <= 50 >= a165 confidenta 1262
a22 <= 50 >= a166 confidenta 1266
a22 <= 50 >= a167 confidenta 1275
a22 <= 50 >= a168 confidenta 1279
a22 <= 50 >= a169 confidenta 1284
a23 <= 50 >= a24 confidenta 1286
a23 <= 50 >= a25 confidenta 1280
a23 <= 50 >= a26 confidenta 1278
a23 <= 50 >= a27 confidenta 1268
a23 <= 50 >= a28 confidenta 1272
a23 <= 50 >= a29 confidenta 1277
a23 <= 50 >= a30 confidenta 1279
a23 <= 50 >= a31 confidenta 1281
a23 <= 50 >= a32 confidenta 1278
a23 <= 50 >= a33 confidenta 1277
a23 <= 50 >= a34 confidenta 1279
a23 <= 50 >= a35 confidenta 1280
a23 <= 50 >= a36 confidenta 1281
a23 <= 50 >= a37 confidenta 1278
a23 <= 50 >= a38 confidenta 1273
a23 <= 50 >= a39 confidenta 1276
a23 <= 50 >= a40 confidenta 1261
a23 <= 50 >= a41 confidenta 1263
a23 <= 50 >= a42 confidenta 1259
a23 <= 50 >= a43 confidenta 1258
a23 <= 50 >= a44 confidenta 1264
a23 <= 50 >= a45 confidenta 1257
a23 <= 50 >= a48 confidenta 1255
a23 <= 50 >= a49 confidenta 1259
a23 <= 50 >= a50 confidenta 1262
a23 <= 50 >= a51 confidenta 1264
a23 <= 50 >= a52 confidenta 1272
a23 <= 50 >= a65 confidenta 1260
a23 <= 50 >= a78 confidenta 1255
a23 <= 50 >= a156 confidenta 1260
a23 <= 50 >= a166 confidenta 1258
a23 <= 50 >= a167 confidenta 1267
a23 <= 50 >= a168 confidenta 1271
a23 <= 50 >= a169 confidenta 1276
a24 <= 50 >= a25 confidenta 1282
a24 <= 50 >= a26 confidenta 1276
a24 <= 50 >= a27 confidenta 1263
a24 <= 50 >= a28 confidenta 1267
a24 <= 50 >= a29 confidenta 1272
a24 <= 50 >= a30 confidenta 1274
a24 <= 50 >= a31 confidenta 1276
a24 <= 50 >= a32 confidenta 1273
a24 <= 50 >= a33 confidenta 1272
a24 <= 50 >= a34 confidenta 1275
a24 <= 50 >= a35 confidenta 1271
a24 <= 50 >= a36 confidenta 1275
a24 <= 50 >= a37 confidenta 1275
a24 <= 50 >= a38 confidenta 1276
a24 <= 50 >= a39 confidenta 1272
a24 <= 50 >= a40 confidenta 1256
a24 <= 50 >= a41 confidenta 1258
a24 <= 50 >= a44 confidenta 1257
a24 <= 50 >= a50 confidenta 1258
a24 <= 50 >= a51 confidenta 1262
a24 <= 50 >= a52 confidenta 1270
a24 <= 50 >= a65 confidenta 1257
a24 <= 50 >= a156 confidenta 1255
a24 <= 50 >= a167 confidenta 1262
a24 <= 50 >= a168 confidenta 1266
a24 <= 50 >= a169 confidenta 1271
a25 <= 50 >= a26 confidenta 1282
a25 <= 50 >= a27 confidenta 1262
a25 <= 50 >= a28 confidenta 1266
a25 <= 50 >= a29 confidenta 1271
a25 <= 50 >= a30 confidenta 1273
a25 <= 50 >= a31 confidenta 1275
a25 <= 50 >= a32 confidenta 1271
a25 <= 50 >= a33 confidenta 1270
a25 <= 50 >= a34 confidenta 1272
a25 <= 50 >= a35 confidenta 1269
a25 <= 50 >= a36 confidenta 1269
a25 <= 50 >= a37 confidenta 1271
a25 <= 50 >= a38 confidenta 1275
a25 <= 50 >= a39 confidenta 1278
a25 <= 50 >= a40 confidenta 1255
a25 <= 50 >= a41 confidenta 1257
a25 <= 50 >= a44 confidenta 1256
a25 <= 50 >= a51 confidenta 1260
a25 <= 50 >= a52 confidenta 1270
a25 <= 50 >= a167 confidenta 1261
a25 <= 50 >= a168 confidenta 1265
a25 <= 50 >= a169 confidenta 1270
a26 <= 50 >= a27 confidenta 1263
a26 <= 50 >= a28 confidenta 1267
a26 <= 50 >= a29 confidenta 1272
a26 <= 50 >= a30 confidenta 1274
a26 <= 50 >= a31 confidenta 1276
a26 <= 50 >= a32 confidenta 1271
a26 <= 50 >= a33 confidenta 1270
a26 <= 50 >= a34 confidenta 1272
a26 <= 50 >= a35 confidenta 1268
a26 <= 50 >= a36 confidenta 1269
a26 <= 50 >= a37 confidenta 1267
a26 <= 50 >= a38 confidenta 1274
a26 <= 50 >= a39 confidenta 1280
a26 <= 50 >= a40 confidenta 1256
a26 <= 50 >= a41 confidenta 1258
a26 <= 50 >= a44 confidenta 1257
a26 <= 50 >= a51 confidenta 1259
a26 <= 50 >= a52 confidenta 1272
a26 <= 50 >= a65 confidenta 1256
a26 <= 50 >= a156 confidenta 1255
a26 <= 50 >= a167 confidenta 1262
a26 <= 50 >= a168 confidenta 1266
a26 <= 50 >= a169 confidenta 1271
a27 <= 50 >= a28 confidenta 1277
a27 <= 50 >= a29 confidenta 1274
a27 <= 50 >= a30 confidenta 1273
a27 <= 50 >= a31 confidenta 1272
a27 <= 50 >= a32 confidenta 1264
a27 <= 50 >= a33 confidenta 1261
a27 <= 50 >= a34 confidenta 1263
a27 <= 50 >= a35 confidenta 1259
a27 <= 50 >= a36 confidenta 1258
a27 <= 50 >= a37 confidenta 1255
a27 <= 50 >= a38 confidenta 1256
a27 <= 50 >= a39 confidenta 1260
a27 <= 50 >= a40 confidenta 1270
a27 <= 50 >= a41 confidenta 1267
a27 <= 50 >= a42 confidenta 1258
a27 <= 50 >= a52 confidenta 1257
a27 <= 50 >= a167 confidenta 1259
a27 <= 50 >= a168 confidenta 1261
a27 <= 50 >= a169 confidenta 1265
a28 <= 50 >= a29 confidenta 1280
a28 <= 50 >= a30 confidenta 1278
a28 <= 50 >= a31 confidenta 1276
a28 <= 50 >= a32 confidenta 1271
a28 <= 50 >= a33 confidenta 1265
a28 <= 50 >= a34 confidenta 1267
a28 <= 50 >= a35 confidenta 1263
a28 <= 50 >= a36 confidenta 1262
a28 <= 50 >= a37 confidenta 1259
a28 <= 50 >= a38 confidenta 1260
a28 <= 50 >= a39 confidenta 1264
a28 <= 50 >= a40 confidenta 1270
a28 <= 50 >= a41 confidenta 1270
a28 <= 50 >= a42 confidenta 1265
a28 <= 50 >= a43 confidenta 1259
a28 <= 50 >= a44 confidenta 1259
a28 <= 50 >= a52 confidenta 1261
a28 <= 50 >= a166 confidenta 1256
a28 <= 50 >= a167 confidenta 1263
a28 <= 50 >= a168 confidenta 1265
a28 <= 50 >= a169 confidenta 1269
a29 <= 50 >= a30 confidenta 1286
a29 <= 50 >= a31 confidenta 1282
a29 <= 50 >= a32 confidenta 1276
a29 <= 50 >= a33 confidenta 1273
a29 <= 50 >= a34 confidenta 1272
a29 <= 50 >= a35 confidenta 1268
a29 <= 50 >= a36 confidenta 1267
a29 <= 50 >= a37 confidenta 1264
a29 <= 50 >= a38 confidenta 1265
a29 <= 50 >= a39 confidenta 1269
a29 <= 50 >= a40 confidenta 1266
a29 <= 50 >= a41 confidenta 1272
a29 <= 50 >= a42 confidenta 1269
a29 <= 50 >= a43 confidenta 1268
a29 <= 50 >= a44 confidenta 1266
a29 <= 50 >= a45 confidenta 1258
a29 <= 50 >= a51 confidenta 1256
a29 <= 50 >= a52 confidenta 1266
a29 <= 50 >= a65 confidenta 1255
a29 <= 50 >= a156 confidenta 1257
a29 <= 50 >= a166 confidenta 1259
a29 <= 50 >= a167 confidenta 1267
a29 <= 50 >= a168 confidenta 1269
a29 <= 50 >= a169 confidenta 1274
a30 <= 50 >= a31 confidenta 1288
a30 <= 50 >= a32 confidenta 1279
a30 <= 50 >= a33 confidenta 1275
a30 <= 50 >= a34 confidenta 1275
a30 <= 50 >= a35 confidenta 1270
a30 <= 50 >= a36 confidenta 1269
a30 <= 50 >= a37 confidenta 1266
a30 <= 50 >= a38 confidenta 1267
a30 <= 50 >= a39 confidenta 1271
a30 <= 50 >= a40 confidenta 1268
a30 <= 50 >= a41 confidenta 1269
a30 <= 50 >= a42 confidenta 1269
a30 <= 50 >= a43 confidenta 1269
a30 <= 50 >= a44 confidenta 1271
a30 <= 50 >= a45 confidenta 1262
a30 <= 50 >= a46 confidenta 1255
a30 <= 50 >= a51 confidenta 1258
a30 <= 50 >= a52 confidenta 1268
a30 <= 50 >= a53 confidenta 1256
a30 <= 50 >= a65 confidenta 1257
a30 <= 50 >= a156 confidenta 1258
a30 <= 50 >= a166 confidenta 1258
a30 <= 50 >= a167 confidenta 1267
a30 <= 50 >= a168 confidenta 1270
a30 <= 50 >= a169 confidenta 1275
a31 <= 50 >= a32 confidenta 1286
a31 <= 50 >= a33 confidenta 1278
a31 <= 50 >= a34 confidenta 1278
a31 <= 50 >= a35 confidenta 1273
a31 <= 50 >= a36 confidenta 1271
a31 <= 50 >= a37 confidenta 1268
a31 <= 50 >= a38 confidenta 1269
a31 <= 50 >= a39 confidenta 1273
a31 <= 50 >= a40 confidenta 1266
a31 <= 50 >= a41 confidenta 1269
a31 <= 50 >= a42 confidenta 1266
a31 <= 50 >= a43 confidenta 1269
a31 <= 50 >= a44 confidenta 1273
a31 <= 50 >= a45 confidenta 1267
a31 <= 50 >= a46 confidenta 1259
a31 <= 50 >= a47 confidenta 1256
a31 <= 50 >= a49 confidenta 1255
a31 <= 50 >= a50 confidenta 1256
a31 <= 50 >= a51 confidenta 1260
a31 <= 50 >= a52 confidenta 1270
a31 <= 50 >= a53 confidenta 1257
a31 <= 50 >= a65 confidenta 1259
a31 <= 50 >= a78 confidenta 1255
a31 <= 50 >= a156 confidenta 1260
a31 <= 50 >= a166 confidenta 1258
a31 <= 50 >= a167 confidenta 1267
a31 <= 50 >= a168 confidenta 1271
a31 <= 50 >= a169 confidenta 1276
a32 <= 50 >= a33 confidenta 1281
a32 <= 50 >= a34 confidenta 1275
a32 <= 50 >= a35 confidenta 1269
a32 <= 50 >= a36 confidenta 1268
a32 <= 50 >= a37 confidenta 1263
a32 <= 50 >= a38 confidenta 1264
a32 <= 50 >= a39 confidenta 1268
a32 <= 50 >= a40 confidenta 1258
a32 <= 50 >= a41 confidenta 1262
a32 <= 50 >= a42 confidenta 1260
a32 <= 50 >= a43 confidenta 1261
a32 <= 50 >= a44 confidenta 1268
a32 <= 50 >= a45 confidenta 1267
a32 <= 50 >= a46 confidenta 1262
a32 <= 50 >= a47 confidenta 1255
a32 <= 50 >= a51 confidenta 1255
a32 <= 50 >= a52 confidenta 1265
a32 <= 50 >= a156 confidenta 1255
a32 <= 50 >= a167 confidenta 1262
a32 <= 50 >= a168 confidenta 1266
a32 <= 50 >= a169 confidenta 1271
a33 <= 50 >= a34 confidenta 1283
a33 <= 50 >= a35 confidenta 1271
a33 <= 50 >= a36 confidenta 1267
a33 <= 50 >= a37 confidenta 1263
a33 <= 50 >= a38 confidenta 1262
a33 <= 50 >= a39 confidenta 1266
a33 <= 50 >= a41 confidenta 1257
a33 <= 50 >= a42 confidenta 1255
a33 <= 50 >= a43 confidenta 1256
a33 <= 50 >= a44 confidenta 1263
a33 <= 50 >= a45 confidenta 1262
a33 <= 50 >= a46 confidenta 1261
a33 <= 50 >= a47 confidenta 1262
a33 <= 50 >= a52 confidenta 1263
a33 <= 50 >= a167 confidenta 1260
a33 <= 50 >= a168 confidenta 1264
a33 <= 50 >= a169 confidenta 1269
a34 <= 50 >= a35 confidenta 1280
a34 <= 50 >= a36 confidenta 1272
a34 <= 50 >= a37 confidenta 1266
a34 <= 50 >= a38 confidenta 1266
a34 <= 50 >= a39 confidenta 1268
a34 <= 50 >= a40 confidenta 1256
a34 <= 50 >= a41 confidenta 1258
a34 <= 50 >= a43 confidenta 1255
a34 <= 50 >= a44 confidenta 1260
a34 <= 50 >= a45 confidenta 1257
a34 <= 50 >= a46 confidenta 1260
a34 <= 50 >= a47 confidenta 1263
a34 <= 50 >= a48 confidenta 1260
a34 <= 50 >= a51 confidenta 1257
a34 <= 50 >= a52 confidenta 1265
a34 <= 50 >= a156 confidenta 1255
a34 <= 50 >= a167 confidenta 1262
a34 <= 50 >= a168 confidenta 1266
a34 <= 50 >= a169 confidenta 1271
a35 <= 50 >= a36 confidenta 1276
a35 <= 50 >= a37 confidenta 1266
a35 <= 50 >= a38 confidenta 1264
a35 <= 50 >= a39 confidenta 1268
a35 <= 50 >= a44 confidenta 1255
a35 <= 50 >= a47 confidenta 1258
a35 <= 50 >= a48 confidenta 1261
a35 <= 50 >= a49 confidenta 1261
a35 <= 50 >= a51 confidenta 1256
a35 <= 50 >= a52 confidenta 1264
a35 <= 50 >= a167 confidenta 1258
a35 <= 50 >= a168 confidenta 1262
a35 <= 50 >= a169 confidenta 1267
a36 <= 50 >= a37 confidenta 1274
a36 <= 50 >= a38 confidenta 1268
a36 <= 50 >= a39 confidenta 1267
a36 <= 50 >= a48 confidenta 1255
a36 <= 50 >= a49 confidenta 1259
a36 <= 50 >= a50 confidenta 1263
a36 <= 50 >= a51 confidenta 1259
a36 <= 50 >= a52 confidenta 1266
a36 <= 50 >= a167 confidenta 1257
a36 <= 50 >= a168 confidenta 1261
a36 <= 50 >= a169 confidenta 1266
a37 <= 50 >= a38 confidenta 1274
a37 <= 50 >= a39 confidenta 1268
a37 <= 50 >= a50 confidenta 1261
a37 <= 50 >= a51 confidenta 1266
a37 <= 50 >= a52 confidenta 1267
a37 <= 50 >= a168 confidenta 1258
a37 <= 50 >= a169 confidenta 1263
a38 <= 50 >= a39 confidenta 1276
a38 <= 50 >= a50 confidenta 1259
a38 <= 50 >= a51 confidenta 1267
a38 <= 50 >= a52 confidenta 1275
a38 <= 50 >= a65 confidenta 1256
a38 <= 50 >= a167 confidenta 1255
a38 <= 50 >= a168 confidenta 1259
a38 <= 50 >= a169 confidenta 1264
a39 <= 50 >= a41 confidenta 1255
a39 <= 50 >= a50 confidenta 1256
a39 <= 50 >= a51 confidenta 1266
a39 <= 50 >= a52 confidenta 1279
a39 <= 50 >= a65 confidenta 1259
a39 <= 50 >= a167 confidenta 1259
a39 <= 50 >= a168 confidenta 1263
a39 <= 50 >= a169 confidenta 1268
a40 <= 50 >= a41 confidenta 1267
a40 <= 50 >= a42 confidenta 1255
a40 <= 50 >= a53 confidenta 1256
a40 <= 50 >= a169 confidenta 1256
a41 <= 50 >= a42 confidenta 1264
a41 <= 50 >= a53 confidenta 1257
a41 <= 50 >= a168 confidenta 1255
a41 <= 50 >= a169 confidenta 1259
a42 <= 50 >= a43 confidenta 1260
a42 <= 50 >= a169 confidenta 1256
a43 <= 50 >= a44 confidenta 1258
a44 <= 50 >= a45 confidenta 1257
a44 <= 50 >= a169 confidenta 1257
a50 <= 50 >= a51 confidenta 1259
a50 <= 50 >= a52 confidenta 1258
a51 <= 50 >= a52 confidenta 1270
a51 <= 50 >= a65 confidenta 1261
a51 <= 50 >= a169 confidenta 1255
a52 <= 50 >= a65 confidenta 1266
a52 <= 50 >= a167 confidenta 1256
a52 <= 50 >= a168 confidenta 1260
a52 <= 50 >= a169 confidenta 1265
a64 <= 50 >= a65 confidenta 1257
a65 <= 50 >= a78 confidenta 1257
a85 >= 15 <= a86 confidenta 1258
a85 >= 15 <= a97 confidenta 1263
a85 >= 15 <= a98 confidenta 1263
a86 >= 15 <= a98 confidenta 1255
a97 >= 15 <= a98 confidenta 1265
a98 >= 15 <= a99 confidenta 1260
a154 <= 50 >= a155 confidenta 1257
a154 <= 50 >= a167 confidenta 1257
a154 <= 50 >= a168 confidenta 1262
a154 <= 50 >= a169 confidenta 1260
a155 <= 50 >= a156 confidenta 1262
a155 <= 50 >= a167 confidenta 1256
a155 <= 50 >= a168 confidenta 1262
a155 <= 50 >= a169 confidenta 1266
a156 <= 50 >= a167 confidenta 1258
a156 <= 50 >= a168 confidenta 1264
a156 <= 50 >= a169 confidenta 1267
a164 <= 50 >= a165 confidenta 1255
a165 <= 50 >= a166 confidenta 1263
a165 <= 50 >= a167 confidenta 1257
a165 <= 50 >= a168 confidenta 1255
a166 <= 50 >= a167 confidenta 1269
a166 <= 50 >= a168 confidenta 1262
a166 <= 50 >= a169 confidenta 1261
a167 <= 50 >= a168 confidenta 1278
a167 <= 50 >= a169 confidenta 1273
a168 <= 50 >= a169 confidenta 1284